{  
    "data":{  
       "items":[  
          {  
             "id":182,
             "campaignType":"CPC",
             "title":"Live QA Scenario 8 Creative",
             "advertiserId":1001,
             "publishers":[  
                100
             ],
             "cpcRate":9.99,
             "monthlyBudgetLimitEnabled":false,
             "monthlyBudgetLimitAmount":0.0,
             "currentSpend":0.0,
             "startDate":"2020-01-21",
             "endDate":"2020-01-21",
             "modifiedBy":810119,
             "timeZone":"Europe/London",
             "currency":"GBP",
             "region":"GB",
             "created":"2017-11-16T14:21:03",
             "modified":"2017-12-19T14:22:16",
             "processed":null,
             "creativeId":2045476,
             "advertiserTagId":323163,
             "etag":3
          },
          {  
             "id":361,
             "campaignType":"CPC",
             "title":"Test for GA live QA updated",
             "advertiserId":1001,
             "publishers":[  
                100
             ],
             "cpcRate":0.5,
             "monthlyBudgetLimitEnabled":false,
             "monthlyBudgetLimitAmount":0.0,
             "currentSpend":0.0,
             "startDate":"2018-08-10",
             "endDate":"2018-08-10",
             "modifiedBy":810119,
             "timeZone":"Europe/London",
             "currency":"GBP",
             "region":"GB",
             "created":"2017-12-15T10:18:19",
             "modified":"2017-12-18T13:01:13",
             "processed":null,
             "creativeId":null,
             "advertiserTagId":null,
             "etag":3
          },
          {  
             "id":338,
             "campaignType":"CPC",
             "title":"Test Advertiser",
             "advertiserId":1001,
             "publishers":[  
                73471
             ],
             "cpcRate":0.99,
             "monthlyBudgetLimitEnabled":false,
             "monthlyBudgetLimitAmount":0.0,
             "currentSpend":0.0,
             "startDate":"2017-12-06",
             "endDate":"2017-12-15",
             "modifiedBy":810119,
             "timeZone":"Europe/London",
             "currency":"GBP",
             "region":"GB",
             "created":"2017-12-06T12:26:39",
             "modified":"2017-12-18T12:57:49",
             "processed":null,
             "creativeId":2025931,
             "advertiserTagId":320655,
             "etag":2
          },
          {  
             "id":366,
             "campaignType":"CPC",
             "title":"Test",
             "advertiserId":1001,
             "publishers":[  
                111
             ],
             "cpcRate":0.22,
             "monthlyBudgetLimitEnabled":false,
             "monthlyBudgetLimitAmount":0.0,
             "currentSpend":0.0,
             "startDate":"2017-12-22",
             "endDate":"2017-12-22",
             "modifiedBy":810119,
             "timeZone":"Europe/London",
             "currency":"GBP",
             "region":"GB",
             "created":"2017-12-18T11:04:12",
             "modified":"2017-12-18T12:57:18",
             "processed":null,
             "creativeId":2097989,
             "advertiserTagId":85238,
             "etag":2
          },
          {  
             "id":365,
             "campaignType":"CPC",
             "title":"Test",
             "advertiserId":1001,
             "publishers":[  
                111
             ],
             "cpcRate":0.11,
             "monthlyBudgetLimitEnabled":false,
             "monthlyBudgetLimitAmount":0.0,
             "currentSpend":0.0,
             "startDate":"2017-12-20",
             "endDate":"2017-12-20",
             "modifiedBy":810119,
             "timeZone":"Europe/London",
             "currency":"GBP",
             "region":"GB",
             "created":"2017-12-18T10:39:01",
             "modified":"2017-12-18T10:39:01",
             "processed":null,
             "creativeId":2097989,
             "advertiserTagId":85238,
             "etag":0
          },
          {  
             "id":364,
             "campaignType":"CPC",
             "title":"Test after hapee migration",
             "advertiserId":1001,
             "publishers":[  
                111
             ],
             "cpcRate":0.01,
             "monthlyBudgetLimitEnabled":false,
             "monthlyBudgetLimitAmount":0.0,
             "currentSpend":0.0,
             "startDate":"2017-12-18",
             "endDate":"2017-12-18",
             "modifiedBy":810119,
             "timeZone":"Europe/London",
             "currency":"GBP",
             "region":"GB",
             "created":"2017-12-18T10:37:47",
             "modified":"2017-12-18T10:37:47",
             "processed":null,
             "creativeId":2097989,
             "advertiserTagId":85238,
             "etag":0
          },
          {  
             "id":362,
             "campaignType":"CPC",
             "title":"Test creative specific for QA live QA",
             "advertiserId":1001,
             "publishers":[  
                100
             ],
             "cpcRate":0.01,
             "monthlyBudgetLimitEnabled":false,
             "monthlyBudgetLimitAmount":0.0,
             "currentSpend":0.0,
             "startDate":"2018-07-01",
             "endDate":"2018-07-01",
             "modifiedBy":810119,
             "timeZone":"Europe/London",
             "currency":"GBP",
             "region":"GB",
             "created":"2017-12-15T10:22:18",
             "modified":"2017-12-15T10:22:18",
             "processed":null,
             "creativeId":2097989,
             "advertiserTagId":85238,
             "etag":0
          },
          {  
             "id":339,
             "campaignType":"CPC",
             "title":"Test Advertiser",
             "advertiserId":1001,
             "publishers":[  
                73471
             ],
             "cpcRate":0.01,
             "monthlyBudgetLimitEnabled":false,
             "monthlyBudgetLimitAmount":0.0,
             "currentSpend":0.0,
             "startDate":"2017-12-06",
             "endDate":"2017-12-15",
             "modifiedBy":810119,
             "timeZone":"Europe/London",
             "currency":"GBP",
             "region":"GB",
             "created":"2017-12-06T12:28:36",
             "modified":"2017-12-15T10:16:55",
             "processed":null,
             "creativeId":2025932,
             "advertiserTagId":320656,
             "etag":1
          },
          {  
             "id":340,
             "campaignType":"CPC",
             "title":"Test Advertiser",
             "advertiserId":1001,
             "publishers":[  
                73471
             ],
             "cpcRate":0.01,
             "monthlyBudgetLimitEnabled":false,
             "monthlyBudgetLimitAmount":0.0,
             "currentSpend":0.0,
             "startDate":"2017-12-07",
             "endDate":"2017-12-15",
             "modifiedBy":810119,
             "timeZone":"Europe/London",
             "currency":"GBP",
             "region":"GB",
             "created":"2017-12-06T12:32:18",
             "modified":"2017-12-15T10:16:47",
             "processed":null,
             "creativeId":2025926,
             "advertiserTagId":73243,
             "etag":2
          },
          {  
             "id":360,
             "campaignType":"CPC",
             "title":"Live QA GA 14/12/2017",
             "advertiserId":1001,
             "publishers":[  
                117951
             ],
             "cpcRate":0.02,
             "monthlyBudgetLimitEnabled":false,
             "monthlyBudgetLimitAmount":0.0,
             "currentSpend":0.0,
             "startDate":"2017-12-16",
             "endDate":"2017-12-17",
             "modifiedBy":343943,
             "timeZone":"Europe/London",
             "currency":"GBP",
             "region":"GB",
             "created":"2017-12-14T16:10:27",
             "modified":"2017-12-14T16:11:07",
             "processed":null,
             "creativeId":2097989,
             "advertiserTagId":85238,
             "etag":1
          },
          {  
             "id":359,
             "campaignType":"CPC",
             "title":"Live QA GA 14/12/2017",
             "advertiserId":1001,
             "publishers":[  
                117951
             ],
             "cpcRate":0.11,
             "monthlyBudgetLimitEnabled":false,
             "monthlyBudgetLimitAmount":0.0,
             "currentSpend":0.0,
             "startDate":"2017-12-14",
             "endDate":"2017-12-15",
             "modifiedBy":343943,
             "timeZone":"Europe/London",
             "currency":"GBP",
             "region":"GB",
             "created":"2017-12-14T16:09:42",
             "modified":"2017-12-14T16:10:41",
             "processed":null,
             "creativeId":null,
             "advertiserTagId":null,
             "etag":1
          },
          {  
             "id":350,
             "campaignType":"CPC",
             "title":"Live QA 12/12/2017",
             "advertiserId":1001,
             "publishers":[  
                262523
             ],
             "cpcRate":1.0,
             "monthlyBudgetLimitEnabled":true,
             "monthlyBudgetLimitAmount":2.0,
             "currentSpend":0.0,
             "startDate":"2017-12-12",
             "endDate":"2017-12-12",
             "modifiedBy":21287,
             "timeZone":"Europe/London",
             "currency":"GBP",
             "region":"GB",
             "created":"2017-12-11T14:10:55",
             "modified":"2017-12-11T14:10:55",
             "processed":null,
             "creativeId":null,
             "advertiserTagId":null,
             "etag":0
          },
          {  
             "id":349,
             "campaignType":"CPC",
             "title":"This is a creative specific campaign",
             "advertiserId":1001,
             "publishers":[  
                320249
             ],
             "cpcRate":1.0,
             "monthlyBudgetLimitEnabled":true,
             "monthlyBudgetLimitAmount":5.0,
             "currentSpend":0.0,
             "startDate":"2017-12-12",
             "endDate":"2017-12-12",
             "modifiedBy":21287,
             "timeZone":"Europe/London",
             "currency":"GBP",
             "region":"GB",
             "created":"2017-12-11T11:52:29",
             "modified":"2017-12-11T11:52:29",
             "processed":null,
             "creativeId":2065908,
             "advertiserTagId":325528,
             "etag":0
          },
          {  
             "id":348,
             "campaignType":"CPC",
             "title":"This is a generic campaign",
             "advertiserId":1001,
             "publishers":[  
                320249
             ],
             "cpcRate":1.0,
             "monthlyBudgetLimitEnabled":true,
             "monthlyBudgetLimitAmount":10.0,
             "currentSpend":0.0,
             "startDate":"2017-12-11",
             "endDate":"2017-12-11",
             "modifiedBy":21287,
             "timeZone":"Europe/London",
             "currency":"GBP",
             "region":"GB",
             "created":"2017-12-11T11:51:44",
             "modified":"2017-12-11T11:51:44",
             "processed":null,
             "creativeId":null,
             "advertiserTagId":null,
             "etag":0
          },
          {  
             "id":343,
             "campaignType":"CPC",
             "title":"Test Portugal Advertiser",
             "advertiserId":1001,
             "publishers":[  
                11115566
             ],
             "cpcRate":0.01,
             "monthlyBudgetLimitEnabled":false,
             "monthlyBudgetLimitAmount":0.0,
             "currentSpend":0.0,
             "startDate":"2017-12-06",
             "endDate":"2017-12-07",
             "modifiedBy":21287,
             "timeZone":"Europe/London",
             "currency":"GBP",
             "region":"GB",
             "created":"2017-12-06T14:27:48",
             "modified":"2017-12-07T10:39:34",
             "processed":null,
             "creativeId":2065908,
             "advertiserTagId":325528,
             "etag":1
          },
          {  
             "id":342,
             "campaignType":"CPC",
             "title":"Test Portugal Advertiser",
             "advertiserId":1001,
             "publishers":[  
                111155
             ],
             "cpcRate":0.01,
             "monthlyBudgetLimitEnabled":false,
             "monthlyBudgetLimitAmount":0.0,
             "currentSpend":0.0,
             "startDate":"2017-12-06",
             "endDate":"2017-12-07",
             "modifiedBy":810119,
             "timeZone":"Europe/London",
             "currency":"GBP",
             "region":"GB",
             "created":"2017-12-06T14:27:32",
             "modified":"2017-12-07T09:30:34",
             "processed":null,
             "creativeId":2065908,
             "advertiserTagId":325528,
             "etag":1
          },
          {  
             "id":337,
             "campaignType":"CPC",
             "title":"Test 3",
             "advertiserId":1001,
             "publishers":[  
                260145
             ],
             "cpcRate":0.01,
             "monthlyBudgetLimitEnabled":false,
             "monthlyBudgetLimitAmount":0.0,
             "currentSpend":0.0,
             "startDate":"2017-12-06",
             "endDate":null,
             "modifiedBy":708631,
             "timeZone":"Europe/London",
             "currency":"GBP",
             "region":"GB",
             "created":"2017-12-06T11:57:19",
             "modified":"2017-12-06T11:57:19",
             "processed":null,
             "creativeId":2045475,
             "advertiserTagId":323162,
             "etag":0
          },
          {  
             "id":336,
             "campaignType":"CPC",
             "title":"Zanox Test 2",
             "advertiserId":1001,
             "publishers":[  
                260145
             ],
             "cpcRate":0.01,
             "monthlyBudgetLimitEnabled":false,
             "monthlyBudgetLimitAmount":0.0,
             "currentSpend":0.0,
             "startDate":"2017-12-06",
             "endDate":null,
             "modifiedBy":708631,
             "timeZone":"Europe/London",
             "currency":"GBP",
             "region":"GB",
             "created":"2017-12-06T11:56:33",
             "modified":"2017-12-06T11:56:33",
             "processed":null,
             "creativeId":2079907,
             "advertiserTagId":327247,
             "etag":0
          },
          {  
             "id":334,
             "campaignType":"CPC",
             "title":"Non provider Creative specific campign",
             "advertiserId":1001,
             "publishers":[  
                192909
             ],
             "cpcRate":1.0,
             "monthlyBudgetLimitEnabled":true,
             "monthlyBudgetLimitAmount":10.0,
             "currentSpend":0.0,
             "startDate":"2017-12-07",
             "endDate":"2017-12-07",
             "modifiedBy":810119,
             "timeZone":"Europe/London",
             "currency":"GBP",
             "region":"GB",
             "created":"2017-12-06T09:04:59",
             "modified":"2017-12-06T09:27:51",
             "processed":null,
             "creativeId":2079907,
             "advertiserTagId":327247,
             "etag":1
          },
          {  
             "id":333,
             "campaignType":"CPC",
             "title":"Creative specific 3",
             "advertiserId":1001,
             "publishers":[  
                262523
             ],
             "cpcRate":10.0,
             "monthlyBudgetLimitEnabled":true,
             "monthlyBudgetLimitAmount":100.0,
             "currentSpend":0.0,
             "startDate":"2017-12-06",
             "endDate":"2017-12-06",
             "modifiedBy":21287,
             "timeZone":"Europe/London",
             "currency":"GBP",
             "region":"GB",
             "created":"2017-12-06T08:57:23",
             "modified":"2017-12-06T08:57:23",
             "processed":null,
             "creativeId":2079907,
             "advertiserTagId":327247,
             "etag":0
          },
          {  
             "id":332,
             "campaignType":"CPC",
             "title":"Test Portugal Advertiser",
             "advertiserId":1001,
             "publishers":[  
                45629
             ],
             "cpcRate":0.01,
             "monthlyBudgetLimitEnabled":false,
             "monthlyBudgetLimitAmount":null,
             "currentSpend":0.0,
             "startDate":"2017-12-05",
             "endDate":null,
             "modifiedBy":550777,
             "timeZone":"Europe/London",
             "currency":"GBP",
             "region":"GB",
             "created":"2017-12-05T11:19:58",
             "modified":"2017-12-05T11:19:58",
             "processed":null,
             "creativeId":2079907,
             "advertiserTagId":327247,
             "etag":0
          },
          {  
             "id":331,
             "campaignType":"CPC",
             "title":"Test Portugal Advertiser",
             "advertiserId":1001,
             "publishers":[  
                1117
             ],
             "cpcRate":0.01,
             "monthlyBudgetLimitEnabled":false,
             "monthlyBudgetLimitAmount":null,
             "currentSpend":0.0,
             "startDate":"2017-12-05",
             "endDate":null,
             "modifiedBy":550777,
             "timeZone":"Europe/London",
             "currency":"GBP",
             "region":"GB",
             "created":"2017-12-05T11:16:35",
             "modified":"2017-12-05T11:16:35",
             "processed":null,
             "creativeId":null,
             "advertiserTagId":null,
             "etag":0
          },
          {  
             "id":325,
             "campaignType":"CPC",
             "title":"Live QA ITEM11460 - 1001",
             "advertiserId":1001,
             "publishers":[  
                320249
             ],
             "cpcRate":1.0,
             "monthlyBudgetLimitEnabled":true,
             "monthlyBudgetLimitAmount":10.0,
             "currentSpend":0.0,
             "startDate":"2017-12-05",
             "endDate":"2017-12-05",
             "modifiedBy":21287,
             "timeZone":"Europe/London",
             "currency":"GBP",
             "region":"GB",
             "created":"2017-12-05T10:13:48",
             "modified":"2017-12-05T10:13:48",
             "processed":null,
             "creativeId":null,
             "advertiserTagId":null,
             "etag":0
          },
          {  
             "id":321,
             "campaignType":"CPC",
             "title":"Add a non provider creative specific campaign",
             "advertiserId":1001,
             "publishers":[  
                262523
             ],
             "cpcRate":1.0,
             "monthlyBudgetLimitEnabled":false,
             "monthlyBudgetLimitAmount":0.0,
             "currentSpend":0.0,
             "startDate":"2017-12-06",
             "endDate":"2017-12-06",
             "modifiedBy":33818,
             "timeZone":"Europe/London",
             "currency":"GBP",
             "region":"GB",
             "created":"2017-12-05T08:39:42",
             "modified":"2017-12-05T08:39:42",
             "processed":null,
             "creativeId":2065908,
             "advertiserTagId":325528,
             "etag":0
          },
          {  
             "id":320,
             "campaignType":"CPC",
             "title":"Add a non provider generic campaign",
             "advertiserId":1001,
             "publishers":[  
                262523
             ],
             "cpcRate":1.0,
             "monthlyBudgetLimitEnabled":false,
             "monthlyBudgetLimitAmount":0.0,
             "currentSpend":0.0,
             "startDate":"2017-12-05",
             "endDate":"2017-12-05",
             "modifiedBy":33818,
             "timeZone":"Europe/London",
             "currency":"GBP",
             "region":"GB",
             "created":"2017-12-05T08:38:42",
             "modified":"2017-12-05T08:38:42",
             "processed":null,
             "creativeId":null,
             "advertiserTagId":null,
             "etag":0
          }
       ],
       "currentItemCount":25,
       "itemsPerPage":25,
       "startIndex":1,
       "totalItems":90,
       "pageIndex":0,
       "totalPages":4
    }
 }